[
    {
        "TaskName": "BuyGroupProductBridge",
        "TaskGroup": "LoadDataHubDW",
        "PrimarySourceName": "DataHub",
        "PrimarySourceObjectSchema": "dbcxm",
        "PrimarySourceObjectName": "BuyGroup",
        "DestinationTargetName": "INWKEDW",
        "DestinationObjectStagingSchema":"Staging",
        "DestinationObjectStagingName":"BuyGroupProductBridgeStage",
        "DestinationObjectSchema": "edw",
        "DestinationObjectName": "BuyGroupProductBridge",
        "CDCType": "0",
        "CDCColumnName": "ETLLastUpdatedDate",
        "IsFullLoad": true, 
        "SourceQuery_FullLoad": "[edw].[GetBuyGroupProductBridge]",
        "SourceQuery_Incremental":"[edw].[GetBuyGroupProductBridge]",
        "TargetMergeStmt": "[Utility].[MergeBuyGroupProductBridge]",
        "IsDestinationOutputAFile": "0"
    }  ,
    {
        "TaskName": "ProductAdditionalAttributeBridge",
        "TaskGroup": "LoadDataHubDW",
        "PrimarySourceName": "DataHub",
        "PrimarySourceObjectSchema": "dbcxm",
        "PrimarySourceObjectName": "tbl_MetaStringDictionaryValueLocalization_Xavier, CatalogContentProperty, MetaStringDictionaryValue",
        "DestinationTargetName": "INWKEDW",
        "DestinationObjectStagingSchema":"Staging",
        "DestinationObjectStagingName":"ProductAdditionalAttributeBridgeStage",
        "DestinationObjectSchema": "edw",
        "DestinationObjectName": "ProductAdditionalAttributeBridge",
        "CDCType": "0",
        "CDCColumnName": "ETLLastUpdatedDate",
        "IsFullLoad": true, 
        "SourceQuery_FullLoad": "[edw].[GetProductAdditionalAttributeBridge]",
        "SourceQuery_Incremental":"[edw].[GetProductAdditionalAttributeBridge]",
        "TargetMergeStmt": "[Utility].[MergeProductAdditionalAttributeBridge]",
        "IsDestinationOutputAFile": "0"
    }

]