[
        {
            "LoadRawPrimarySourceConnection": "mi-dataservices-inwkreplica.public.826a3d05da77.database.windows.net,3342",
            "LoadRawDestinationTargetConnection": "inwkdatahub.database.windows.net",
            "LoadDimensionSourceConnection": "inwkdatahub.database.windows.net",
            "LoadDimensionDestinationTargetConnection": "inwkdatahub.database.windows.net",
            "LoadBusinessSourceConnection": "inwkdatahub.database.windows.net",
            "LoadBusinessDestinationTargetConnection": "inwkdatahub.database.windows.net",
            "LoadFactSourceConnection": "inwkdatahub.database.windows.net",
            "LoadFactDestinationTargetConnection": "inwkdatahub.database.windows.net"
        }
    ]